What the Package Does (One Line, Title Case) • tidy.outliers
…
Create recipe mutating probabilities

rec_obj <-
  recipe(mpg ~ ., data = mtcars) |>
  step_outliers_maha(all_numeric(), -all_outcomes()) |>
  step_outliers_lookout(all_numeric(),-contains(r"(.outliers)"),-all_outcomes()) |> 
  prep(mtcars)

Investigate results

juice(rec_obj) |> 
  select(contains(r"(.outliers)")) |> 
  arrange(.outliers_lookout |> desc())
#> # A tibble: 32 x 2
#>    .outliers_maha .outliers_lookout
#>             <dbl>             <dbl>
#>  1          0.959            1     
#>  2          0.967            0.506 
#>  3          0.951            0.403 
#>  4          0.654            0.108 
#>  5          0.864            0.0795
#>  6          0.741            0.0787
#>  7          0.411            0     
#>  8          0.374            0     
#>  9          0.222            0     
#> 10          0.192            0     
#> # ... with 22 more rows

tidy(rec_obj,number = 1)
#> # A tibble: 32 x 3
#>    index outlier_probability id                 
#>    <int>               <dbl> <chr>              
#>  1     1               0.411 outliers_maha_Tjwjd
#>  2     2               0.374 outliers_maha_Tjwjd
#>  3     3               0.222 outliers_maha_Tjwjd
#>  4     4               0.192 outliers_maha_Tjwjd
#>  5     5               0.124 outliers_maha_Tjwjd
#>  6     6               0.350 outliers_maha_Tjwjd
#>  7     7               0.481 outliers_maha_Tjwjd
#>  8     8               0.493 outliers_maha_Tjwjd
#>  9     9               0.985 outliers_maha_Tjwjd
#> 10    10               0.737 outliers_maha_Tjwjd
#> # ... with 22 more rows

tidy(rec_obj,number = 2)
#> # A tibble: 32 x 3
#>    index outlier_probability id                    
#>    <int>               <dbl> <chr>                 
#>  1     1                   0 outliers_lookout_PJD8R
#>  2     2                   0 outliers_lookout_PJD8R
#>  3     3                   0 outliers_lookout_PJD8R
#>  4     4                   0 outliers_lookout_PJD8R
#>  5     5                   0 outliers_lookout_PJD8R
#>  6     6                   0 outliers_lookout_PJD8R
#>  7     7                   0 outliers_lookout_PJD8R
#>  8     8                   0 outliers_lookout_PJD8R
#>  9     9                   0 outliers_lookout_PJD8R
#> 10    10                   0 outliers_lookout_PJD8R
#> # ... with 22 more rows
…
And we can get which were the outliers and their probability

tidy(rec_obj2,number = 3) |> 
  arrange(aggregation_results |> desc())
#> # A tibble: 32 x 3
#>    index outliers aggregation_results
#>    <int> <lgl>                  <dbl>
#>  1    31 TRUE                   0.980
#>  2    29 FALSE                  0.736
#>  3    27 FALSE                  0.677
#>  4     9 FALSE                  0.493
#>  5    19 FALSE                  0.472
#>  6    28 FALSE                  0.410
#>  7    30 FALSE                  0.381
#>  8    21 FALSE                  0.372
#>  9    10 FALSE                  0.369
#> 10    24 FALSE                  0.347
#> # ... with 22 more rows
…
