…
### Investigate results

``` r
juice(rec_obj) %>% 
  select(contains(r"(.outliers)")) %>% 
  arrange(.outliers_lookout %>% desc())
#> Registered S3 method overwritten by 'cli':
#>   method     from    
#>   print.boxx spatstat
#> # A tibble: 32 x 2
#>    .outliers_maha .outliers_lookout
#>             <dbl>             <dbl>
#>  1          0.959            1     
#>  2          0.967            0.506 
#>  3          0.951            0.403 
#>  4          0.654            0.108 
#>  5          0.864            0.0795
#>  6          0.741            0.0787
#>  7          0.411            0     
#>  8          0.374            0     
#>  9          0.222            0     
#> 10          0.192            0     
#> # ... with 22 more rows
```

``` r
tidy(rec_obj,number = 1)
#> # A tibble: 32 x 3
#>    index outlier_probability id                 
#>    <int>               <dbl> <chr>              
#>  1     1               0.411 outliers_maha_UScb9
#>  2     2               0.374 outliers_maha_UScb9
#>  3     3               0.222 outliers_maha_UScb9
#>  4     4               0.192 outliers_maha_UScb9
#>  5     5               0.124 outliers_maha_UScb9
#>  6     6               0.350 outliers_maha_UScb9
#>  7     7               0.481 outliers_maha_UScb9
#>  8     8               0.493 outliers_maha_UScb9
#>  9     9               0.985 outliers_maha_UScb9
#> 10    10               0.737 outliers_maha_UScb9
#> # ... with 22 more rows
```

``` r
tidy(rec_obj,number = 2)
#> # A tibble: 32 x 3
#>    index outlier_probability id                    
#>    <int>               <dbl> <chr>                 
#>  1     1                   0 outliers_lookout_jpLf8
#>  2     2                   0 outliers_lookout_jpLf8
#>  3     3                   0 outliers_lookout_jpLf8
#>  4     4                   0 outliers_lookout_jpLf8
#>  5     5                   0 outliers_lookout_jpLf8
#>  6     6                   0 outliers_lookout_jpLf8
#>  7     7                   0 outliers_lookout_jpLf8
#>  8     8                   0 outliers_lookout_jpLf8
#>  9     9                   0 outliers_lookout_jpLf8
#> 10    10                   0 outliers_lookout_jpLf8
#> # ... with 22 more rows
```
…
And we can get which were the outliers and their probability

``` r
tidy(rec_obj2,number = 3) %>% 
  arrange(aggregation_results %>% desc())
#> # A tibble: 32 x 3
#>    index outliers aggregation_results
#>    <int> <lgl>                  <dbl>
#>  1    31 TRUE                   0.980
#>  2    29 FALSE                  0.736
#>  3    27 FALSE                  0.677
#>  4     9 FALSE                  0.493
#>  5    19 FALSE                  0.472
#>  6    28 FALSE                  0.410
#>  7    30 FALSE                  0.381
#>  8    21 FALSE                  0.372
#>  9    10 FALSE                  0.369
#> 10    24 FALSE                  0.347
#> # ... with 22 more rows
```
…
