Calculate the aggregation of a set of outlier columns and filters the resulting tibble — step_outliers_remove • tidy.outliers
…
    Examples

library(recipes)
library(tidy.outliers)
library(OutlierDetection)
rec_obj <-
  recipe(mpg ~ ., data = mtcars) %>%
  step_outliers_maha(all_numeric(), -all_outcomes()) %>%
  step_outliers_remove(contains(r"(.outliers)")) %>%
  prep(mtcars)

juice(rec_obj)

#> # A tibble: 28 x 11
#>      cyl  disp    hp  drat    wt  qsec    vs    am  gear  carb   mpg
#>    <dbl> <dbl> <dbl> <dbl> <dbl> <dbl> <dbl> <dbl> <dbl> <dbl> <dbl>
#>  1     6  160    110  3.9   2.62  16.5     0     1     4     4  21  
#>  2     6  160    110  3.9   2.88  17.0     0     1     4     4  21  
#>  3     4  108     93  3.85  2.32  18.6     1     1     4     1  22.8
#>  4     6  258    110  3.08  3.22  19.4     1     0     3     1  21.4
#>  5     8  360    175  3.15  3.44  17.0     0     0     3     2  18.7
#>  6     6  225    105  2.76  3.46  20.2     1     0     3     1  18.1
#>  7     8  360    245  3.21  3.57  15.8     0     0     3     4  14.3
#>  8     4  147.    62  3.69  3.19  20       1     0     4     2  24.4
#>  9     6  168.   123  3.92  3.44  18.3     1     0     4     4  19.2
#> 10     6  168.   123  3.92  3.44  18.9     1     0     4     4  17.8
#> # … with 18 more rows

tidy(rec_obj, number = 2)

#> # A tibble: 32 x 3
#>    index outliers aggregation_results
#>    <int> <lgl>                  <dbl>
#>  1     1 FALSE                  0.411
#>  2     2 FALSE                  0.374
#>  3     3 FALSE                  0.222
#>  4     4 FALSE                  0.192
#>  5     5 FALSE                  0.124
#>  6     6 FALSE                  0.350
#>  7     7 FALSE                  0.481
#>  8     8 FALSE                  0.493
#>  9     9 TRUE                   0.985
#> 10    10 FALSE                  0.737
#> # … with 22 more rows
…
