Calculate the Mahalanobis outlier "probability" — step_outliers_maha • tidy.outliers
…
juice(rec_obj)

#> Registered S3 method overwritten by 'cli':
#>   method     from    
#>   print.boxx spatstat
#> # A tibble: 32 x 12
#>      cyl  disp    hp  drat    wt  qsec    vs    am  gear  carb   mpg
#>    <dbl> <dbl> <dbl> <dbl> <dbl> <dbl> <dbl> <dbl> <dbl> <dbl> <dbl>
#>  1     6  160    110  3.9   2.62  16.5     0     1     4     4  21  
#>  2     6  160    110  3.9   2.88  17.0     0     1     4     4  21  
#>  3     4  108     93  3.85  2.32  18.6     1     1     4     1  22.8
#>  4     6  258    110  3.08  3.22  19.4     1     0     3     1  21.4
#>  5     8  360    175  3.15  3.44  17.0     0     0     3     2  18.7
#>  6     6  225    105  2.76  3.46  20.2     1     0     3     1  18.1
#>  7     8  360    245  3.21  3.57  15.8     0     0     3     4  14.3
#>  8     4  147.    62  3.69  3.19  20       1     0     4     2  24.4
#>  9     4  141.    95  3.92  3.15  22.9     1     0     4     2  22.8
#> 10     6  168.   123  3.92  3.44  18.3     1     0     4     4  19.2
#> # ... with 22 more rows, and 1 more variable: .outliers_maha <dbl>

tidy(rec_obj,number = 1)

#> # A tibble: 32 x 3
#>    index outlier_probability id                 
#>    <int>               <dbl> <chr>              
#>  1     1               0.411 outliers_maha_SwlKL
#>  2     2               0.374 outliers_maha_SwlKL
#>  3     3               0.222 outliers_maha_SwlKL
#>  4     4               0.192 outliers_maha_SwlKL
#>  5     5               0.124 outliers_maha_SwlKL
#>  6     6               0.350 outliers_maha_SwlKL
#>  7     7               0.481 outliers_maha_SwlKL
#>  8     8               0.493 outliers_maha_SwlKL
#>  9     9               0.985 outliers_maha_SwlKL
#> 10    10               0.737 outliers_maha_SwlKL
#> # ... with 22 more rows
…
